<?xml version="1.0" standalone="no"?>
<!DOCTYPE svg PUBLIC "-//W3C//DTD SVG 20010904//EN"
 "http://www.w3.org/TR/2001/REC-SVG-20010904/DTD/svg10.dtd">
<svg version="1.0" xmlns="http://www.w3.org/2000/svg"
 width="250.000000pt" height="250.000000pt" viewBox="0 0 250.000000 250.000000"
 preserveAspectRatio="xMidYMid meet">
<metadata>
Created by potrace 1.11, written by Peter Selinger 2001-2013
</metadata>
<g transform="translate(0.000000,250.000000) scale(0.100000,-0.100000)"
fill="#000000" stroke="none">
<path d="M0 1250 l0 -1250 1250 0 1250 0 0 1250 0 1250 -1250 0 -1250 0 0
-1250z m2047 586 c71 -34 137 -97 170 -165 23 -47 27 -69 27 -141 0 -72 -4
-94 -27 -142 -53 -108 -167 -181 -286 -181 -36 -1 -83 5 -104 12 -36 12 -39
12 -77 -21 -21 -18 -38 -39 -37 -45 1 -7 78 -92 171 -189 l169 -176 -84 -84
-85 -85 -178 182 -179 181 -141 -139 c-77 -76 -160 -156 -184 -178 l-42 -39
-180 179 -180 180 -178 -178 -177 -177 -85 85 -85 85 180 180 180 180 -180
180 -180 181 90 84 90 84 175 -175 c96 -96 180 -174 185 -174 5 0 89 79 186
176 l176 175 177 -182 177 -182 41 40 41 41 -13 52 c-36 151 33 300 172 370
53 26 72 30 142 30 65 0 92 -5 133 -24z"/>
<path d="M1844 1651 c-34 -21 -64 -75 -64 -116 0 -41 30 -95 64 -116 18 -11
50 -19 76 -19 56 0 101 27 123 73 21 44 21 80 1 123 -33 69 -133 96 -200 55z"/>
<path d="M1072 1248 l-92 -93 94 -94 93 -93 97 92 96 93 -87 91 c-48 50 -92
92 -98 94 -5 1 -52 -39 -103 -90z"/>
</g>
</svg>
